Journal (reproducible report)
…
# Data Science at TUHH ------------------------------------------------------
# SALES ANALYSIS ----

# 1.0 Load libraries ----
library(tidyverse)
library(readxl)

# 2.0 Importing Files ----
bikes_tbl <- read_excel(path = "00_data/01_bike_sales/01_raw_data/bikes.xlsx")
orderlines_tbl <- read_excel("00_data/01_bike_sales/01_raw_data/orderlines.xlsx")
bikeshops_tbl  <- read_excel("00_data/01_bike_sales/01_raw_data/bikeshops.xlsx")
# 3.0 Examining Data ----
orderlines_tbl

## # A tibble: 15,644 x 7
##    ...1  order.id order.line order.date          customer.id product.id quantity
##    <chr>    <dbl>      <dbl> <dttm>                    <dbl>      <dbl>    <dbl>
##  1 1            1          1 2015-01-07 00:00:00           2       2681        1
##  2 2            1          2 2015-01-07 00:00:00           2       2411        1
##  3 3            2          1 2015-01-10 00:00:00          10       2629        1
##  4 4            2          2 2015-01-10 00:00:00          10       2137        1
##  5 5            3          1 2015-01-10 00:00:00           6       2367        1
##  6 6            3          2 2015-01-10 00:00:00           6       1973        1
##  7 7            3          3 2015-01-10 00:00:00           6       2422        1
##  8 8            3          4 2015-01-10 00:00:00           6       2655        1
##  9 9            3          5 2015-01-10 00:00:00           6       2247        1
## 10 10           4          1 2015-01-11 00:00:00          22       2408        1
## # … with 15,634 more rows
…
  # Group by and summarize year and main catgegory
  group_by(year, category_1) %>%
  summarise(sales = sum(total_price)) %>%
  ungroup() %>%
  
  # Format $ Text
  mutate(sales_text = scales::dollar(sales, big.mark = ".", 
                                     decimal.mark = ",", 
                                     prefix = "", 
                                     suffix = " €"))

sales_by_year_cat_1_tbl 

## # A tibble: 25 x 4
##     year category_1      sales sales_text 
##    <dbl> <chr>           <dbl> <chr>      
##  1  2015 E-Bikes       1599048 1.599.048 €
##  2  2015 Gravel         663025 663.025 €  
##  3  2015 Hybrid / City  502512 502.512 €  
##  4  2015 Mountain      3254289 3.254.289 €
##  5  2015 Road          3911408 3.911.408 €
##  6  2016 E-Bikes       1916469 1.916.469 €
##  7  2016 Gravel         768794 768.794 €  
##  8  2016 Hybrid / City  512346 512.346 €  
##  9  2016 Mountain      3288733 3.288.733 €
## 10  2016 Road          4244165 4.244.165 €
## # … with 15 more rows
…
  # Group by and summarize year and main catgegory
  group_by(year, state) %>%
  summarise(sales = sum(total_price)) %>%
  ungroup() %>%
  
  # Format $ Text
  mutate(sales_text = scales::dollar(sales, big.mark = ".", 
                                     decimal.mark = ",", 
                                     prefix = "", 
                                     suffix = " €"))

sales_by_year_loc_tbl 

## # A tibble: 60 x 4
##     year state                           sales sales_text 
##    <dbl> <chr>                           <dbl> <chr>      
##  1  2015 Baden-Württemberg             1031924 1.031.924 €
##  2  2015 Bavaria                       1301461 1.301.461 €
##  3  2015 Berlin                          95853 95.853 €   
##  4  2015 Bremen                        1395912 1.395.912 €
##  5  2015 Hamburg                        423090 423.090 €  
##  6  2015 Hesse                          308609 308.609 €  
##  7  2015 Lower Saxony                   584386 584.386 €  
##  8  2015 Mecklenburg-Western Pomerania  222003 222.003 €  
##  9  2015 North Rhine-Westphalia        3735092 3.735.092 €
## 10  2015 Saxony                         238371 238.371 €  
## # … with 50 more rows
…
diamonds %>% 
   filter(cut == 'Ideal' | cut == 'Premium', carat >= 0.23) %>% 
   slice(3:4)

## # A tibble: 2 x 10
##   carat cut   color clarity depth table price     x     y     z
##   <dbl> <ord> <ord> <ord>   <dbl> <dbl> <int> <dbl> <dbl> <dbl>
## 1  0.23 Ideal J     VS1      62.8    56   340  3.93  3.9   2.46
## 2  0.31 Ideal J     SI2      62.2    54   344  4.35  4.37  2.71

diamonds %>% 
  arrange(cut, carat, desc(price))

## # A tibble: 53,940 x 10
##    carat cut   color clarity depth table price     x     y     z
##    <dbl> <ord> <ord> <ord>   <dbl> <dbl> <int> <dbl> <dbl> <dbl>
##  1 0.22  Fair  E     VS2      65.1    61   337  3.87  3.78  2.49
##  2 0.23  Fair  G     VVS2     61.4    66   369  3.87  3.91  2.39
##  3 0.25  Fair  F     SI2      54.4    64  1013  4.3   4.23  2.32
##  4 0.25  Fair  D     VS1      61.2    55   563  4.09  4.11  2.51
##  5 0.25  Fair  E     VS1      55.2    64   361  4.21  4.23  2.33
##  6 0.27  Fair  E     VS1      66.4    58   371  3.99  4.02  2.66
##  7 0.290 Fair  F     SI1      55.8    60  1776  4.48  4.41  2.48
##  8 0.290 Fair  D     VS2      64.7    62   592  4.14  4.11  2.67
##  9 0.3   Fair  D     IF       60.5    57  1208  4.47  4.35  2.67
## 10 0.3   Fair  E     VVS2     51      67   945  4.67  4.62  2.37
## # … with 53,930 more rows
…
